{ "height":200,
 "layers":[
        {
         "data":[4, 3, 4, 3, 3, 4, 4, 4, 4, 4, 3, 3, 3, 3, 4, 3, 4, 4, 3, 4, 3, 4, 3, 4, 4, 3, 4, 4, 4, 4, 4, 3, 3, 4, 4, 3, 3, 4, 3, 3, 3, 4, 4, 3, 4, 3, 4, 4, 4, 4, 4, 4, 4, 4, 3, 3, 3, 4, 4, 3, 3, 3, 3, 3, 4, 4, 3, 3, 4, 4, 4, 3, 4, 4, 3, 3, 3, 4, 3, 3, 3, 3, 4, 4, 4, 4, 4, 3, 3, 4, 4, 3, 4, 4, 4, 4, 3, 4, 4, 4, 4, 4, 3, 3, 3, 4, 3, 4, 3, 4, 3, 4, 3, 4, 4, 3, 4, 4, 4, 3, 4, 3, 3, 4, 4, 4, 4, 3, 4, 3, 4, 4, 3, 3, 3, 4, 3, 3, 3, 3, 3, 4, 4, 4, 3, 3, 4, 3, 3, 4, 4, 4, 3, 4, 3, 3, 4, 4, 4, 3, 3, 3, 3, 4, 4, 4, 4, 4, 4, 4, 4, 3, 3, 4, 3, 3, 3, 4, 4, 3, 4, 3, 4, 3, 4, 4, 3, 3, 3, 4, 3, 3, 4, 3, 4, 3, 4, 4, 3, 4, 3, 3, 4, 3, 3, 4, 4, 4, 3, 3, 3, 3, 4, 4, 3, 3, 4, 3, 4, 3, 4, 4, 3, 4, 3, 4, 4, 4, 3, 4, 4, 3, 3, 3, 4, 4, 3, 3, 4, 4, 4, 3, 4, 4, 4, 3, 4, 4, 4, 3, 4, 3, 4, 4, 3, 3, 3, 3, 3, 4, 3, 4, 4, 3, 3, 4, 3, 4, 3, 3, 3, 3, 4, 3, 4, 3, 3, 4, 4, 4, 3, 4, 4, 4, 3, 4, 4, 4, 3, 3, 4, 3, 4, 3, 3, 4, 4, 3, 3, 4, 4, 4, 3, 3, 4, 4, 4, 3, 3, 3, 4, 3, 4, 4, 4, 3, 4, 4, 3, 4, 3, 4, 3, 3, 4, 3, 3, 3, 4, 4, 4, 3, 3, 3, 4, 3, 3, 4, 4, 4, 4, 4, 4, 4, 3, 3, 4, 4, 4, 4, 4, 4, 3, 4, 3, 3, 4, 4, 3, 3, 3, 4, 3, 3, 4, 4, 4, 4, 3, 3, 3, 4, 3, 3, 3, 4, 4, 3, 3, 3, 3, 3, 4, 4, 4, 3, 4, 4, 4, 4, 4, 4, 3, 3, 4, 4, 3, 3, 4, 3, 3, 4, 3, 4, 4, 3, 3, 4, 4, 3, 3, 3, 3, 3, 3, 3, 3, 3, 4, 4, 4, 3, 4, 4, 3, 3, 4, 4, 4, 4, 3, 3, 4, 4, 4, 4, 3, 4, 4, 3, 4, 3, 4, 4, 3, 4, 3, 3, 3, 4, 3, 3, 3, 4, 4, 3, 4, 4, 4, 3, 4, 3, 3, 3, 3, 3, 3, 3, 3, 3, 3, 3, 3, 3, 4, 4, 3, 3, 4, 4, 4, 3, 4, 3, 4, 4, 3, 4, 4, 4, 4, 4, 3, 4, 4, 3, 4, 4, 3, 4, 3, 4, 4, 3, 4, 3, 4, 4, 3, 3, 3, 4, 3, 3, 4, 4, 3, 3, 4, 4, 3, 4, 3, 3, 3, 4, 3, 4, 3, 3, 4, 4, 3, 3, 4, 3, 3, 3, 4, 3, 4, 3, 3, 4, 4, 4, 4, 4, 4, 3, 4, 4, 4, 4, 4, 3, 4, 4, 3, 4, 4, 3, 3, 3, 4, 4, 3, 3, 3, 4, 4, 4, 3, 3, 4, 3, 4, 4, 4, 3, 4, 4, 4, 3, 3, 4, 4, 4, 4, 3, 3, 3, 3, 3, 3, 4, 4, 4, 3, 4, 4, 3, 3, 4, 4, 4, 3, 4, 4, 4, 4, 4, 3, 4, 4, 4, 4, 3, 4, 3, 3, 3, 3, 4, 3, 3, 3, 3, 3, 4, 3, 4, 4, 4, 3, 3, 4, 3, 3, 3, 4, 3, 4, 4, 3, 4, 4, 3, 4, 4, 3, 4, 4, 4, 3, 3, 3, 3, 3, 4, 4, 4, 3, 4, 3, 4, 4, 4, 3, 3, 3, 4, 3, 4, 3, 3, 3, 3, 3, 4, 4, 3, 4, 3, 4, 4, 4, 4, 3, 3, 3, 3, 4, 4, 4, 3, 3, 4, 4, 3, 4, 3, 3, 4, 4, 3, 3, 3, 4, 3, 4, 4, 3, 3, 3, 4, 3, 3, 4, 3, 3, 3, 3, 3, 4, 3, 3, 4, 4, 3, 3, 4, 3, 4, 3, 4, 4, 4, 3, 3, 3, 4, 4, 4, 4, 3, 3, 4, 4, 3, 4, 3, 4, 3, 3, 3, 3, 3, 4, 4, 4, 3, 3, 3, 4, 4, 4, 3, 3, 3, 4, 4, 4, 4, 4, 3, 3, 3, 4, 4, 3, 4, 4, 4, 4, 4, 4, 3, 4, 4, 3, 4, 3, 3, 3, 4, 4, 3, 3, 3, 3, 4, 3, 4, 4, 3, 4, 3, 4, 4, 4, 3, 4, 3, 3, 3, 4, 4, 3, 4, 3, 4, 3, 4, 3, 4, 3, 4, 3, 3, 4, 4, 4, 3, 4, 4, 4, 4, 4, 4, 4, 4, 4, 3, 3, 4, 3, 4, 3, 4, 3, 3, 4, 4, 3, 3, 3, 4, 3, 3, 3, 4, 4, 4, 3, 3, 4, 4, 3, 3, 3, 4, 3, 4, 3, 3, 3, 3, 3, 4, 4, 4, 3, 3, 3, 4, 4, 3, 3, 3, 3, 4, 3, 3, 4, 4, 3, 4, 3, 4, 3, 3, 4, 3, 4, 4, 4, 4, 4, 4, 3, 3, 3, 4, 4, 4, 3, 3, 4, 4, 3, 3, 4, 4, 3, 4, 3, 4, 3, 4, 4, 4, 4, 3, 4, 4, 4, 4, 4, 4, 4, 4, 4, 3, 4, 4, 4, 3, 4, 4, 3, 3, 3, 4, 4, 4, 3, 3, 4, 4, 3, 3, 4, 4, 3, 3, 3, 4, 4, 4, 4, 3, 4, 3, 3, 3, 3, 3, 3, 4, 3, 4, 4, 3, 3, 4, 4, 3, 3, 4, 3, 4, 3, 4, 4, 4, 3, 3, 3, 3, 4, 3, 4, 4, 4, 3, 3, 4, 3, 4, 3, 3, 3, 4, 3, 4, 4, 3, 3, 3, 4, 3, 3, 3, 3, 4, 4, 3, 4, 4, 3, 4, 3, 4, 4, 4, 4, 3, 4, 4, 3, 4, 3, 4, 3, 4, 4, 3, 4, 4, 4, 3, 4, 4, 4, 3, 3, 4, 3, 3, 3, 3, 3, 3, 3, 3, 4, 4, 3, 3, 4, 4, 3, 4, 4, 3, 3, 4, 4, 4, 3, 4, 3, 4, 4, 4, 4, 3, 3, 3, 3, 3, 4, 4, 4, 4, 3, 4, 3, 3, 3, 4, 4, 4, 4, 3, 4, 3, 3, 3, 3, 3, 3, 3, 3, 4, 4, 3, 4, 4, 4, 3, 4, 4, 3, 4, 3, 3, 3, 4, 3, 4, 4, 3, 4, 3, 3, 4, 3, 4, 4, 3, 3, 4, 3, 3, 3, 4, 4, 4, 3, 4, 4, 3, 3, 3, 3, 4, 3, 4, 3, 4, 4, 4, 4, 3, 3, 3, 4, 3, 4, 3, 3, 4, 4, 4, 3, 4, 3, 4, 4, 4, 3, 4, 4, 3, 3, 4, 3, 4, 4, 3, 3, 3, 3, 3, 4, 3, 3, 3, 4, 3, 4, 4, 3, 4, 4, 4, 4, 4, 4, 3, 3, 4, 3, 4, 3, 4, 3, 4, 4, 3, 3, 4, 4, 3, 3, 3, 4, 4, 4, 4, 3, 3, 3, 3, 3, 4, 4, 3, 4, 3, 3, 4, 3, 3, 3, 4, 3, 3, 3, 3, 3, 3, 4, 4, 3, 3, 3, 4, 4, 4, 3, 3, 4, 3, 4, 3, 4, 4, 4, 4, 3, 3, 3, 4, 4, 4, 4, 4, 3, 3, 4, 3, 4, 3, 4, 3, 4, 4, 3, 3, 3, 4, 3, 3, 3, 3, 3, 3, 4, 3, 3, 3, 3, 3, 4, 3, 3, 3, 4, 3, 3, 3, 4, 3, 4, 3, 4, 3, 4, 3, 3, 3, 3, 4, 3, 3, 4, 3, 4, 4, 4, 3, 4, 4, 4, 3, 4, 4, 3, 4, 4, 4, 3, 3, 3, 4, 4, 4, 3, 4, 3, 4, 4, 4, 4, 4, 3, 3, 4, 4, 4, 3, 3, 3, 4, 3, 3, 3, 4, 4, 4, 4, 3, 3, 3, 3, 3, 3, 3, 4, 4, 4, 4, 4, 3, 3, 3, 3, 3, 4, 3, 3, 3, 4, 3, 4, 4, 4, 4, 3, 3, 3, 4, 3, 4, 4, 3, 3, 4, 3, 4, 3, 4, 4, 4, 3, 3, 4, 3, 3, 3, 4, 4, 3, 4, 4, 3, 3, 4, 4, 4, 4, 3, 3, 4, 4, 3, 4, 3, 3, 4, 4, 4, 3, 3, 4, 4, 3, 3, 4, 3, 3, 3, 3, 4, 4, 3, 3, 3, 3, 4, 3, 4, 4, 4, 3, 3, 4, 4, 4, 3, 3, 4, 4, 4, 4, 3, 3, 4, 4, 3, 3, 3, 3, 4, 4, 3, 3, 3, 4, 3, 4, 4, 3, 3, 4, 3, 3, 3, 3, 4, 3, 3, 3, 3, 4, 3, 3, 3, 4, 4, 4, 3, 4, 4, 3, 3, 4, 3, 4, 4, 3, 4, 4, 4, 4, 3, 3, 3, 3, 4, 3, 4, 4, 4, 3, 4, 3, 4, 3, 3, 4, 4, 4, 3, 4, 3, 4, 4, 3, 4, 3, 4, 4, 3, 4, 4, 4, 4, 4, 4, 4, 4, 4, 3, 4, 4, 3, 4, 3, 4, 3, 3, 3, 4, 3, 4, 3, 3, 3, 4, 3, 4, 4, 3, 3, 3, 3, 3, 4, 4, 3, 3, 4, 3, 4, 3, 4, 4, 4, 4, 4, 3, 3, 3, 4, 4, 3, 3, 4, 4, 4, 3, 3, 4, 4, 3, 3, 3, 4, 4, 3, 3, 4, 4, 4, 4, 3, 3, 4, 3, 4, 4, 4, 4, 4, 4, 3, 4, 3, 4, 3, 3, 3, 4, 3, 4, 3, 3, 4, 4, 4, 4, 4, 4, 4, 3, 4, 3, 3, 4, 4, 3, 3, 3, 4, 3, 3, 4, 4, 4, 3, 3, 3, 4, 3, 3, 3, 4, 3, 4, 4, 4, 4, 3, 3, 3, 4, 3, 3, 3, 4, 3, 3, 3, 4, 3, 4, 3, 4, 3, 3, 3, 4, 4, 3, 3, 4, 4, 4, 4, 4, 3, 3, 3, 4, 3, 4, 3, 3, 4, 4, 3, 4, 4, 3, 3, 4, 4, 4, 3, 4, 3, 4, 4, 3, 4, 3, 3, 3, 4, 3, 4, 3, 4, 4, 4, 4, 4, 3, 4, 4, 4, 4, 4, 3, 4, 4, 4, 4, 4, 4, 3, 3, 3, 4, 3, 3, 4, 3, 3, 4, 4, 4, 3, 3, 4, 3, 3, 3, 3, 3, 4, 4, 3, 4, 4, 4, 4, 3, 3, 4, 4, 4, 3, 4, 3, 4, 4, 4, 3, 3, 4, 4, 4, 3, 4, 4, 4, 3, 3, 3, 3, 4, 3, 4, 3, 3, 3, 3, 3, 3, 4, 3, 4, 4, 4, 4, 4, 3, 4, 3, 3, 3, 3, 4, 4, 3, 4, 4, 3, 3, 3, 4, 3, 3, 4, 3, 3, 3, 4, 3, 3, 4, 3, 4, 4, 4, 4, 3, 4, 3, 3, 3, 3, 3, 3, 3, 3, 3, 4, 3, 4, 4, 4, 3, 4, 3, 3, 4, 4, 3, 4, 3, 4, 4, 4, 3, 3, 3, 4, 4, 3, 4, 4, 4, 4, 4, 3, 4, 3, 4, 4, 4, 3, 4, 3, 3, 3, 4, 4, 4, 4, 3, 3, 4, 4, 3, 3, 3, 4, 3, 4, 4, 3, 3, 4, 3, 3, 4, 4, 4, 4, 4, 3, 3, 3, 4, 3, 4, 3, 4, 3, 3, 4, 4, 4, 3, 4, 3, 3, 4, 3, 3, 3, 3, 3, 4, 4, 3, 3, 3, 4, 4, 4, 4, 4, 3, 3, 4, 4, 3, 4, 4, 4, 4, 4, 3, 3, 3, 3, 3, 4, 4, 3, 3, 3, 4, 4, 4, 4, 3, 3, 4, 4, 3, 4, 3, 3, 3, 4, 3, 4, 4, 3, 4, 3, 4, 4, 4, 4, 3, 4, 3, 4, 4, 4, 4, 4, 4, 4, 4, 3, 3, 3, 4, 4, 4, 3, 3, 4, 4, 3, 4, 3, 4, 4, 4, 3, 3, 4, 4, 3, 4, 3, 3, 4, 3, 4, 3, 3, 3, 3, 3, 3, 3, 4, 3, 4, 3, 4, 3, 3, 3, 3, 3, 4, 3, 4, 4, 4, 4, 4, 4, 3, 3, 3, 4, 3, 4, 4, 3, 4, 3, 3, 4, 3, 3, 3, 3, 4, 3, 4, 3, 4, 4, 3, 3, 3, 4, 3, 3, 3, 4, 4, 4, 4, 4, 3, 4, 4, 4, 4, 4, 4, 3, 3, 4, 4, 4, 3, 3, 4, 3, 3, 4, 4, 4, 4, 3, 3, 3, 3, 3, 3, 3, 3, 3, 3, 4, 3, 4, 3, 3, 3, 4, 4, 4, 3, 4, 4, 3, 4, 4, 4, 4, 4, 4, 4, 3, 3, 4, 3, 3, 4, 4, 3, 3, 4, 4, 4, 3, 3, 4, 4, 3, 3, 4, 4, 3, 3, 4, 4, 4, 3, 4, 3, 3, 4, 3, 4, 4, 4, 4, 3, 4, 4, 4, 3, 4, 3, 3, 3, 3, 3, 3, 4, 3, 3, 4, 3, 3, 4, 3, 3, 4, 3, 3, 3, 4, 3, 3, 3, 4, 4, 3, 3, 3, 4, 4, 3, 3, 4, 3, 3, 4, 3, 3, 4, 4, 4, 3, 3, 4, 4, 4, 4, 3, 3, 3, 3, 4, 4, 3, 3, 3, 4, 3, 4, 3, 3, 4, 3, 4, 4, 3, 4, 4, 4, 3, 4, 4, 4, 3, 3, 3, 3, 3, 3, 4, 3, 4, 3, 3, 4, 3, 4, 3, 4, 4, 4, 4, 4, 3, 3, 3, 3, 4, 3, 4, 3, 3, 4, 4, 4, 4, 4, 4, 4, 4, 4, 4, 4, 4, 4, 3, 3, 3, 3, 4, 4, 3, 4, 3, 3, 4, 4, 3, 4, 3, 3, 3, 3, 3, 3, 3, 3, 3, 3, 4, 3, 3, 3, 4, 4, 4, 3, 3, 3, 4, 3, 3, 3, 4, 4, 3, 4, 4, 4, 3, 3, 4, 4, 4, 3, 3, 3, 4, 4, 3, 3, 3, 4, 3, 3, 4, 3, 4, 4, 3, 4, 4, 4, 4, 4, 3, 4, 3, 3, 3, 3, 3, 4, 3, 4, 3, 3, 4, 4, 4, 3, 4, 4, 3, 3, 4, 3, 4, 4, 3, 3, 3, 3, 4, 3, 3, 4, 4, 4, 3, 3, 3, 3, 3, 3, 3, 4, 4, 3, 4, 4, 3, 4, 3, 4, 4, 4, 4, 4, 3, 3, 3, 3, 4, 3, 4, 3, 3, 4, 4, 4, 4, 4, 3, 4, 3, 4, 3, 4, 3, 3, 4, 3, 3, 3, 4, 4, 4, 3, 4, 3, 3, 4, 4, 3, 4, 4, 4, 4, 4, 3, 3, 4, 3, 3, 4, 4, 4, 3, 3, 4, 4, 4, 4, 4, 4, 4, 4, 4, 4, 3, 4, 3, 4, 3, 4, 3, 3, 4, 3, 3, 3, 4, 4, 4, 3, 4, 3, 4, 3, 4, 3, 3, 4, 4, 3, 3, 3, 3, 4, 4, 4, 4, 4, 4, 3, 3, 4, 4, 4, 4, 4, 3, 3, 3, 3, 3, 3, 4, 3, 3, 3, 3, 3, 3, 3, 4, 3, 3, 4, 3, 3, 3, 4, 3, 3, 4, 3, 4, 4, 4, 4, 3, 3, 4, 3, 4, 4, 3, 4, 4, 3, 3, 3, 4, 3, 3, 3, 3, 4, 3, 3, 3, 3, 3, 3, 4, 4, 4, 4, 3, 3, 4, 3, 3, 3, 3, 3, 3, 4, 4, 3, 4, 4, 4, 3, 3, 3, 4, 3, 4, 4, 3, 4, 3, 3, 3, 3, 3, 4, 3, 4, 4, 3, 4, 3, 3, 3, 4, 4, 4, 3, 3, 4, 3, 4, 3, 3, 3, 4, 3, 3, 3, 4, 4, 3, 3, 4, 4, 3, 3, 3, 4, 3, 4, 4, 3, 4, 3, 4, 4, 4, 3, 4, 4, 4, 3, 3, 3, 3, 4, 4, 4, 4, 4, 3, 3, 4, 4, 3, 3, 4, 4, 4, 4, 4, 3, 3, 4, 4, 4, 4, 4, 3, 3, 3, 3, 3, 3, 4, 4, 4, 3, 4, 4, 4, 4, 3, 3, 4, 4, 4, 4, 3, 3, 4, 3, 4, 3, 4, 3, 3, 3, 4, 4, 4, 3, 3, 3, 4, 4, 4, 4, 3, 3, 4, 4, 4, 3, 4, 3, 3, 3, 4, 3, 3, 3, 4, 3, 4, 4, 4, 3, 4, 3, 4, 4, 3, 3, 4, 4, 4, 4, 3, 4, 3, 4, 3, 3, 3, 3, 4, 3, 3, 3, 3, 3, 4, 4, 3, 4, 3, 3, 3, 4, 4, 4, 4, 3, 4, 3, 3, 3, 3, 4, 3, 4, 4, 4, 4, 4, 3, 4, 4, 4, 3, 4, 3, 3, 4, 3, 4, 4, 4, 4, 3, 4, 3, 3, 3, 3, 3, 4, 4, 4, 3, 3, 3, 3, 3, 3, 3, 3, 4, 3, 4, 4, 3, 3, 3, 3, 3, 4, 3, 4, 3, 3, 4, 3, 3, 4, 4, 3, 3, 3, 4, 4, 3, 3, 3, 4, 3, 3, 4, 3, 4, 4, 4, 3, 4, 4, 4, 4, 4, 3, 3, 3, 4, 4, 3, 4, 4, 4, 4, 4, 4, 3, 4, 4, 3, 3, 4, 3, 4, 4, 3, 4, 4, 3, 4, 3, 4, 3, 4, 4, 4, 3, 4, 3, 3, 3, 3, 3, 4, 3, 4, 4, 4, 4, 3, 4, 4, 4, 3, 3, 3, 4, 3, 3, 3, 4, 3, 4, 3, 3, 3, 3, 4, 3, 3, 4, 3, 4, 3, 4, 4, 3, 3, 4, 3, 3, 3, 3, 4, 3, 3, 3, 3, 4, 4, 4, 3, 4, 4, 4, 3, 3, 3, 3, 3, 4, 4, 3, 4, 3, 4, 4, 4, 4, 4, 3, 4, 3, 4, 3, 3, 3, 3, 4, 4, 4, 3, 4, 4, 3, 4, 3, 3, 3, 3, 3, 3, 3, 4, 3, 3, 4, 3, 3, 3, 4, 3, 4, 3, 3, 3, 4, 4, 4, 3, 3, 4, 3, 4, 4, 4, 3, 4, 4, 3, 4, 4, 4, 3, 4, 3, 3, 3, 4, 4, 4, 4, 4, 4, 3, 4, 4, 3, 3, 3, 3, 3, 4, 4, 3, 4, 3, 4, 3, 3, 3, 3, 3, 4, 3, 3, 3, 4, 4, 3, 3, 3, 3, 4, 3, 4, 4, 3, 3, 4, 3, 3, 4, 4, 3, 3, 3, 3, 3, 3, 4, 4, 4, 3, 3, 4, 3, 3, 4, 3, 4, 3, 4, 3, 4, 3, 3, 3, 3, 3, 3, 4, 3, 4, 4, 4, 3, 3, 3, 3, 3, 3, 4, 3, 4, 3, 3, 4, 4, 3, 3, 4, 4, 4, 4, 3, 3, 4, 3, 3, 3, 3, 4, 4, 4, 3, 4, 3, 3, 4, 4, 3, 4, 3, 4, 3, 4, 3, 4, 3, 4, 4, 3, 4, 4, 3, 4, 4, 3, 4, 4, 3, 3, 3, 4, 3, 3, 3, 4, 4, 4, 3, 4, 4, 3, 3, 4, 4, 4, 3, 4, 3, 4, 4, 3, 3, 4, 3, 4, 4, 4, 3, 4, 4, 4, 4, 4, 4, 4, 3, 3, 4, 4, 4, 3, 4, 4, 3, 3, 3, 3, 4, 3, 3, 4, 3, 3, 4, 4, 4, 4, 3, 4, 3, 4, 4, 3, 3, 4, 3, 4, 4, 4, 3, 3, 4, 3, 3, 3, 4, 3, 3, 4, 4, 3, 4, 3, 3, 4, 4, 4, 3, 4, 3, 4, 4, 3, 3, 4, 3, 3, 3, 4, 3, 3, 4, 3, 3, 4, 4, 3, 4, 3, 4, 3, 4, 4, 4, 4, 4, 4, 4, 3, 3, 3, 4, 3, 3, 3, 3, 3, 3, 3, 3, 3, 4, 4, 3, 3, 4, 3, 4, 3, 3, 3, 3, 3, 3, 4, 3, 4, 3, 3, 3, 4, 3, 4, 4, 3, 3, 4, 4, 4, 4, 4, 4, 3, 3, 4, 3, 4, 4, 3, 4, 4, 4, 4, 3, 3, 3, 4, 4, 3, 4, 3, 4, 4, 3, 4, 4, 3, 3, 3, 3, 4, 4, 3, 4, 4, 4, 4, 3, 4, 4, 4, 3, 3, 3, 4, 4, 3, 3, 4, 4, 3, 3, 4, 4, 4, 4, 3, 3, 4, 3, 4, 4, 4, 4, 4, 3, 3, 4, 4, 3, 3, 3, 4, 4, 3, 4, 3, 4, 4, 3, 3, 4, 3, 3, 4, 4, 4, 4, 3, 3, 4, 4, 4, 3, 3, 4, 3, 3, 4, 3, 4, 4, 3, 4, 3, 4, 3, 4, 3, 4, 4, 3, 4, 3, 4, 3, 4, 4, 3, 4, 4, 3, 4, 3, 3, 4, 3, 4, 3, 3, 4, 3, 4, 3, 3, 4, 3, 3, 4, 4, 3, 3, 3, 4, 3, 3, 4, 4, 4, 4, 4, 3, 3, 3, 3, 4, 3, 4, 3, 4, 4, 4, 3, 4, 4, 4, 4, 3, 3, 3, 3, 3, 4, 4, 4, 3, 3, 4, 4, 3, 4, 3, 3, 4, 4, 4, 4, 3, 3, 3, 3, 4, 3, 3, 3, 3, 4, 4, 4, 4, 4, 3, 3, 3, 4, 3, 3, 4, 4, 4, 4, 4, 4, 3, 3, 3, 4, 3, 4, 3, 4, 4, 4, 3, 3, 4, 4, 4, 3, 4, 4, 4, 3, 4, 4, 3, 3, 3, 4, 3, 3, 3, 3, 4, 4, 3, 4, 3, 4, 4, 3, 4, 4, 3, 4, 3, 4, 3, 3, 3, 3, 4, 3, 3, 4, 4, 3, 4, 3, 4, 3, 3, 4, 3, 4, 3, 3, 3, 3, 3, 3, 3, 4, 3, 3, 3, 4, 4, 4, 3, 4, 4, 4, 3, 3, 3, 3, 3, 3, 4, 3, 3, 4, 3, 3, 4, 3, 3, 4, 4, 3, 3, 3, 3, 4, 3, 4, 3, 3, 4, 4, 3, 4, 3, 4, 3, 4, 4, 4, 4, 4, 3, 4, 4, 4, 4, 3, 3, 3, 3, 4, 3, 3, 3, 3, 3, 3, 3, 4, 4, 3, 3, 3, 3, 3, 3, 3, 4, 3, 4, 3, 4, 3, 3, 4, 3, 4, 4, 3, 3, 3, 4, 3, 4, 4, 4, 4, 3, 4, 4, 3, 4, 4, 3, 3, 4, 4, 4, 3, 3, 3, 3, 4, 4, 4, 4, 4, 3, 3, 4, 3, 4, 4, 3, 4, 3, 3, 3, 4, 4, 4, 4, 4, 3, 4, 4, 4, 4, 3, 4, 4, 3, 4, 4, 3, 4, 3, 4, 3, 3, 3, 4, 3, 3, 3, 3, 4, 3, 4, 3, 3, 4, 3, 3, 3, 3, 3, 3, 4, 4, 3, 3, 4, 4],
         "height":200,
         "name":"environment",
         "opacity":1,
         "type":"tilelayer",
         "visible":true,
         "width":19,
         "x":0,
         "y":0
        }, 
        {
         "draworder":"topdown",
         "height":200,
         "name":"enemy",
         "objects":[
                {
                 "gid":8,
                 "height":16,
                 "id":41,
                 "name":"",
                 "properties":
                    {

                    },
                 "rotation":0,
                 "type":"",
                 "visible":true,
                 "width":16,
                 "x":32,
                 "y":2800
                }, 
                {
                 "gid":8,
                 "height":16,
                 "id":42,
                 "name":"",
                 "properties":
                    {

                    },
                 "rotation":0,
                 "type":"",
                 "visible":true,
                 "width":16,
                 "x":48,
                 "y":2816
                }, 
                {
                 "gid":8,
                 "height":16,
                 "id":43,
                 "name":"",
                 "properties":
                    {

                    },
                 "rotation":0,
                 "type":"",
                 "visible":true,
                 "width":16,
                 "x":64,
                 "y":2832
                }, 
                {
                 "gid":8,
                 "height":16,
                 "id":44,
                 "name":"",
                 "properties":
                    {

                    },
                 "rotation":0,
                 "type":"",
                 "visible":true,
                 "width":16,
                 "x":80,
                 "y":2848
                }, 
                {
                 "gid":8,
                 "height":16,
                 "id":45,
                 "name":"",
                 "properties":
                    {

                    },
                 "rotation":0,
                 "type":"",
                 "visible":true,
                 "width":16,
                 "x":96,
                 "y":2864
                }, 
                {
                 "gid":8,
                 "height":16,
                 "id":46,
                 "name":"",
                 "properties":
                    {

                    },
                 "rotation":0,
                 "type":"",
                 "visible":true,
                 "width":16,
                 "x":112,
                 "y":2880
                }, 
                {
                 "gid":8,
                 "height":16,
                 "id":47,
                 "name":"",
                 "properties":
                    {

                    },
                 "rotation":0,
                 "type":"",
                 "visible":true,
                 "width":16,
                 "x":128,
                 "y":2896
                }, 
                {
                 "gid":8,
                 "height":16,
                 "id":48,
                 "name":"",
                 "properties":
                    {

                    },
                 "rotation":0,
                 "type":"",
                 "visible":true,
                 "width":16,
                 "x":144,
                 "y":2912
                }, 
                {
                 "gid":8,
                 "height":16,
                 "id":49,
                 "name":"",
                 "properties":
                    {

                    },
                 "rotation":0,
                 "type":"",
                 "visible":true,
                 "width":16,
                 "x":160,
                 "y":2896
                }, 
                {
                 "gid":8,
                 "height":16,
                 "id":50,
                 "name":"",
                 "properties":
                    {

                    },
                 "rotation":0,
                 "type":"",
                 "visible":true,
                 "width":16,
                 "x":256,
                 "y":2800
                }, 
                {
                 "gid":8,
                 "height":16,
                 "id":51,
                 "name":"",
                 "properties":
                    {

                    },
                 "rotation":0,
                 "type":"",
                 "visible":true,
                 "width":16,
                 "x":240,
                 "y":2816
                }, 
                {
                 "gid":8,
                 "height":16,
                 "id":52,
                 "name":"",
                 "properties":
                    {

                    },
                 "rotation":0,
                 "type":"",
                 "visible":true,
                 "width":16,
                 "x":224,
                 "y":2832
                }, 
                {
                 "gid":8,
                 "height":16,
                 "id":53,
                 "name":"",
                 "properties":
                    {

                    },
                 "rotation":0,
                 "type":"",
                 "visible":true,
                 "width":16,
                 "x":208,
                 "y":2848
                }, 
                {
                 "gid":8,
                 "height":16,
                 "id":54,
                 "name":"",
                 "properties":
                    {

                    },
                 "rotation":0,
                 "type":"",
                 "visible":true,
                 "width":16,
                 "x":192,
                 "y":2864
                }, 
                {
                 "gid":8,
                 "height":16,
                 "id":55,
                 "name":"",
                 "properties":
                    {

                    },
                 "rotation":0,
                 "type":"",
                 "visible":true,
                 "width":16,
                 "x":176,
                 "y":2880
                }, 
                {
                 "gid":10,
                 "height":36,
                 "id":56,
                 "name":"",
                 "properties":
                    {

                    },
                 "rotation":0,
                 "type":"",
                 "visible":true,
                 "width":23,
                 "x":112,
                 "y":2816
                }, 
                {
                 "gid":10,
                 "height":36,
                 "id":59,
                 "name":"",
                 "properties":
                    {

                    },
                 "rotation":0,
                 "type":"",
                 "visible":true,
                 "width":23,
                 "x":144,
                 "y":2816
                }, 
                {
                 "gid":10,
                 "height":36,
                 "id":60,
                 "name":"",
                 "properties":
                    {

                    },
                 "rotation":0,
                 "type":"",
                 "visible":true,
                 "width":23,
                 "x":176,
                 "y":2816
                }, 
                {
                 "gid":9,
                 "height":32,
                 "id":61,
                 "name":"",
                 "properties":
                    {

                    },
                 "rotation":0,
                 "type":"",
                 "visible":true,
                 "width":32,
                 "x":32,
                 "y":2720
                }, 
                {
                 "gid":9,
                 "height":32,
                 "id":62,
                 "name":"",
                 "properties":
                    {

                    },
                 "rotation":0,
                 "type":"",
                 "visible":true,
                 "width":32,
                 "x":240,
                 "y":2720
                }, 
                {
                 "gid":9,
                 "height":32,
                 "id":63,
                 "name":"",
                 "properties":
                    {

                    },
                 "rotation":0,
                 "type":"",
                 "visible":true,
                 "width":32,
                 "x":144,
                 "y":2688
                }],
         "opacity":1,
         "type":"objectgroup",
         "visible":true,
         "width":38,
         "x":0,
         "y":0
        }],
 "nextobjectid":64,
 "orientation":"orthogonal",
 "properties":
    {

    },
 "renderorder":"right-down",
 "tileheight":16,
 "tilesets":[
        {
         "firstgid":1,
         "image":"..\/Documents\/Java\/Tiled Tilesets\/574r5\/desert.png",
         "imageheight":16,
         "imagewidth":112,
         "margin":0,
         "name":"Desert",
         "properties":
            {

            },
         "spacing":0,
         "tileheight":16,
         "tilewidth":16
        }, 
        {
         "firstgid":8,
         "margin":0,
         "name":"Enemy",
         "properties":
            {

            },
         "spacing":0,
         "tileheight":36,
         "tiles":
            {
             "0":
                {
                 "image":"..\/Documents\/Java\/Tiled Tilesets\/574r5\/brain_mini.png"
                },
             "1":
                {
                 "image":"..\/Documents\/Java\/Tiled Tilesets\/574r5\/shooter.png"
                },
             "2":
                {
                 "image":"..\/Documents\/Java\/Tiled Tilesets\/574r5\/speedster.png"
                }
            },
         "tilewidth":32
        }],
 "tilewidth":16,
 "version":1,
 "width":19
}